{
    "id": "5348b0e7-eaad-493a-954a-dc81a8accb0a",
    "frame_type": "componentized",
    "components": [{
            "id": "ab8a4776-025d-4278-8755-c6659ed5c73b",
            "component_type": "ComponentizedFrame.FrameNavigator",
            "behaviors": {},
            "selectable_answer_navigator_ids": []
        },
        {
            "id": "14c95256-89cf-4405-8942-747abc796bb8",
            "component_type": "ComponentizedFrame.Challenges",
            "behaviors": {
                "GotoNextOnChallengeComplete": {},
                "CompleteOnAllChallengesComplete": {}
            },
            "editor_template": "matching",
            "context_image_size": "tall",
            "context_image_2_size": "tall",
            "challenge_ids": [
                "0ba9cc97-9c52-4bbc-cf29-df5ab753adcc",
                "ff18b024-f7af-4d9d-d411-0d25fc2a4dc2"
            ],
            "layout_id": "a5fb3f56-d789-45b6-d775-839c25bd8c38",
            "shared_content_for_text_id": "4dfb04d7-a11c-426c-e245-006985c99861",
            "shared_content_for_interactive_image_id": "3282ea2c-17be-47f2-bc04-ea52a8223717"
        },
        {
            "id": "a5fb3f56-d789-45b6-d775-839c25bd8c38",
            "component_type": "ComponentizedFrame.TextImageInteractive",
            "behaviors": {},
            "target_id": "14c95256-89cf-4405-8942-747abc796bb8"
        },
        {
            "id": "27859bb3-4aa2-401a-f48e-1398d0706218",
            "component_type": "ComponentizedFrame.ChallengesContinueButton",
            "behaviors": {},
            "target_component_id": "14c95256-89cf-4405-8942-747abc796bb8"
        },
        {
            "id": "3282ea2c-17be-47f2-bc04-ea52a8223717",
            "component_type": "ComponentizedFrame.MatchingBoard",
            "behaviors": {},
            "challenges_component_id": "14c95256-89cf-4405-8942-747abc796bb8",
            "matching_challenge_button_ids": [
                "11071592-b7ef-4054-dc0e-b5152b68989d",
                "1f7962d5-04f4-4850-cfc8-b31360893feb"
            ],
            "answer_list_id": "61fd758f-df5a-4b5e-a299-2a2de873e2fa"
        },
        {
            "id": "61fd758f-df5a-4b5e-a299-2a2de873e2fa",
            "component_type": "ComponentizedFrame.AnswerList",
            "behaviors": {
                "RandomizeAnswerOrder": {}
            },
            "answer_ids": [
                "859ba12b-ac85-4a52-bdd9-b534ebd8bab5",
                "1d03c3bc-8795-4735-828d-1c5a51eeefb4"
            ],
            "skin": "matching"
        },
        {
            "id": "0ba9cc97-9c52-4bbc-cf29-df5ab753adcc",
            "component_type": "ComponentizedFrame.MultipleChoiceChallenge",
            "behaviors": {
                "CompleteOnCorrect": {},
                "ClearMessagesOnAnswerSelect": {},
                "DisallowMultipleSelect": {},
                "FlashIncorrectStyling": {},
                "ImmediateValidation": {},
                "ShowCorrectStyling": {}
            },
            "editor_template": "matching",
            "_componentName": "MultipleChoiceChallenge",
            "validator_id": "83fbfb65-f8de-4aa7-feb3-ee4e666c1e49",
            "answer_list_id": "61fd758f-df5a-4b5e-a299-2a2de873e2fa",
            "message_ids": []
        },
        {
            "id": "83fbfb65-f8de-4aa7-feb3-ee4e666c1e49",
            "component_type": "ComponentizedFrame.ChallengeValidator",
            "behaviors": {
                "HasAllExpectedAnswers": {},
                "HasNoUnexpectedAnswers": {}
            },
            "challenge_id": "0ba9cc97-9c52-4bbc-cf29-df5ab753adcc",
            "expected_answer_matcher_ids": [
                "887b3d68-e6e4-46cb-eee0-20e933648b8c"
            ]
        },
        {
            "id": "11071592-b7ef-4054-dc0e-b5152b68989d",
            "component_type": "ComponentizedFrame.MatchingChallengeButton",
            "behaviors": {},
            "challenge_id": "0ba9cc97-9c52-4bbc-cf29-df5ab753adcc",
            "text_id": "10e35562-298b-4197-ba2c-e08ec767e88d"
        },
        {
            "id": "10e35562-298b-4197-ba2c-e08ec767e88d",
            "component_type": "ComponentizedFrame.Text",
            "behaviors": {
                "ProcessesMarkdown": {},
                "ProcessesModals": {},
                "ProcessesInlineImages": {},
                "ProcessesMathjax": {}
            },
            "text": "The first letter.",
            "formatted_text": "<p>The first letter.</p>"
        },
        {
            "id": "859ba12b-ac85-4a52-bdd9-b534ebd8bab5",
            "component_type": "ComponentizedFrame.SelectableAnswer",
            "behaviors": {},
            "text_id": "86361c5d-36bd-4799-f00e-9cd651b11d8b"
        },
        {
            "id": "86361c5d-36bd-4799-f00e-9cd651b11d8b",
            "component_type": "ComponentizedFrame.Text",
            "behaviors": {
                "ProcessesMarkdown": {},
                "ProcessesModals": {},
                "ProcessesInlineImages": {},
                "ProcessesMathjax": {}
            },
            "text": "A",
            "formatted_text": "<p>A</p>"
        },
        {
            "id": "887b3d68-e6e4-46cb-eee0-20e933648b8c",
            "component_type": "ComponentizedFrame.SimilarToSelectableAnswer",
            "behaviors": {},
            "answer_id": "859ba12b-ac85-4a52-bdd9-b534ebd8bab5"
        },
        {
            "id": "4dfb04d7-a11c-426c-e245-006985c99861",
            "component_type": "ComponentizedFrame.Text",
            "behaviors": {
                "ProcessesMarkdown": {},
                "ProcessesModals": {},
                "ProcessesInlineImages": {},
                "ProcessesMathjax": {}
            },
            "text": "An excellent interaction for reviewing material is {coral: Matching}. {blue:Challenges} appear in order in the left column; {blue: answers} can be [[randomized]] in the right column.",
            "formatted_text": "<p>An excellent interaction for reviewing material is <span class=\"coral\"> Matching</span>. <span class=\"blue\">Challenges</span> appear in order in the left column; <span class=\"blue\"> answers</span> can be <modal-popup modal-container=\".frame-container > .frame\" index=\"0\" event-type=\"lesson:modal-click\">                                <span label>randomized</span>                                <span content>                                    <cf-ui-component view-model=\"modalViewModel(0)\"></cf-ui-component>                                </span>                            </modal-popup> in the right column.</p>",
            "modal_ids": [
                "87d37133-bbf6-4a72-d0b4-d9fbbed84002"
            ]
        },
        {
            "id": "87d37133-bbf6-4a72-d0b4-d9fbbed84002",
            "component_type": "ComponentizedFrame.Text",
            "behaviors": {
                "ProcessesMarkdown": {},
                "ProcessesModals": {},
                "ProcessesInlineImages": {},
                "ProcessesMathjax": {}
            },
            "text": "Most non-compose interactions provide an option to randomize the order of the answer choices.",
            "formatted_text": "<p>Most non-compose interactions provide an option to randomize the order of the answer choices.</p>"
        },
        {
            "id": "ff18b024-f7af-4d9d-d411-0d25fc2a4dc2",
            "component_type": "ComponentizedFrame.MultipleChoiceChallenge",
            "behaviors": {
                "CompleteOnCorrect": {},
                "ClearMessagesOnAnswerSelect": {},
                "DisallowMultipleSelect": {},
                "FlashIncorrectStyling": {},
                "ImmediateValidation": {},
                "ShowCorrectStyling": {}
            },
            "editor_template": "matching",
            "_componentName": "MultipleChoiceChallenge",
            "validator_id": "f4a38c87-623e-40a8-ac49-84e835ffa357",
            "answer_list_id": "61fd758f-df5a-4b5e-a299-2a2de873e2fa",
            "message_ids": []
        },
        {
            "id": "f4a38c87-623e-40a8-ac49-84e835ffa357",
            "component_type": "ComponentizedFrame.ChallengeValidator",
            "behaviors": {
                "HasAllExpectedAnswers": {},
                "HasNoUnexpectedAnswers": {}
            },
            "challenge_id": "ff18b024-f7af-4d9d-d411-0d25fc2a4dc2",
            "expected_answer_matcher_ids": [
                "f0b31a17-9610-4038-c980-c70811956714"
            ]
        },
        {
            "id": "1f7962d5-04f4-4850-cfc8-b31360893feb",
            "component_type": "ComponentizedFrame.MatchingChallengeButton",
            "behaviors": {},
            "challenge_id": "ff18b024-f7af-4d9d-d411-0d25fc2a4dc2",
            "text_id": "66411c1e-c06d-4c77-eb17-d2429181bff4"
        },
        {
            "id": "66411c1e-c06d-4c77-eb17-d2429181bff4",
            "component_type": "ComponentizedFrame.Text",
            "behaviors": {
                "ProcessesMarkdown": {},
                "ProcessesModals": {},
                "ProcessesInlineImages": {},
                "ProcessesMathjax": {}
            },
            "text": "The second letter",
            "formatted_text": "<p>The second letter</p>"
        },
        {
            "id": "1d03c3bc-8795-4735-828d-1c5a51eeefb4",
            "component_type": "ComponentizedFrame.SelectableAnswer",
            "behaviors": {},
            "text_id": "37706301-b62d-408b-b780-f74f1278b8e2"
        },
        {
            "id": "f0b31a17-9610-4038-c980-c70811956714",
            "component_type": "ComponentizedFrame.SimilarToSelectableAnswer",
            "behaviors": {},
            "answer_id": "1d03c3bc-8795-4735-828d-1c5a51eeefb4"
        },
        {
            "id": "37706301-b62d-408b-b780-f74f1278b8e2",
            "behaviors": {
                "ProcessesMarkdown": {},
                "ProcessesModals": {},
                "ProcessesInlineImages": {},
                "ProcessesMathjax": {}
            },
            "component_type": "ComponentizedFrame.Text",
            "text": "B",
            "formatted_text": "<p>B</p>"
        }
    ],
    "continue_button_id": "27859bb3-4aa2-401a-f48e-1398d0706218",
    "main_ui_component_id": "14c95256-89cf-4405-8942-747abc796bb8",
    "frame_navigator_id": "ab8a4776-025d-4278-8755-c6659ed5c73b"
}