{
    "id": "6df1c7cd-1ab7-4d5c-ffe0-755c8d8fc099",
    "frame_type": "componentized",
    "components": [{
            "id": "85669ea3-afec-4593-fc45-564c88a00fef",
            "component_type": "ComponentizedFrame.FrameNavigator",
            "behaviors": {},
            "selectable_answer_navigator_ids": []
        },
        {
            "id": "03a8537d-3620-4d63-9246-89bb5cbb9c48",
            "component_type": "ComponentizedFrame.Challenges",
            "behaviors": {
                "GotoNextOnChallengeComplete": {},
                "CompleteOnAllChallengesComplete": {}
            },
            "editor_template": "this_or_that",
            "challenge_ids": [
                "bb03885b-5599-4927-f62e-311d66cf72d9",
                "057887ca-9283-43c7-8ffe-a37d8a16479d"
            ],
            "layout_id": "1c3a00ed-6861-49fc-f46a-d4d38e24f7b1",
            "shared_content_for_text_id": "8d5739e7-c736-4fba-e047-5b130bd6dab5",
            "shared_content_for_interactive_image_id": "7771f739-73be-48b7-f22b-5affb2201841"
        },
        {
            "id": "1c3a00ed-6861-49fc-f46a-d4d38e24f7b1",
            "component_type": "ComponentizedFrame.TextImageInteractive",
            "behaviors": {},
            "target_id": "03a8537d-3620-4d63-9246-89bb5cbb9c48"
        },
        {
            "id": "4c18aa82-57d9-4dca-a2f5-01b9b7d74e7c",
            "component_type": "ComponentizedFrame.ChallengesContinueButton",
            "behaviors": {},
            "target_component_id": "03a8537d-3620-4d63-9246-89bb5cbb9c48"
        },
        {
            "id": "7771f739-73be-48b7-f22b-5affb2201841",
            "component_type": "ComponentizedFrame.TilePromptBoard",
            "behaviors": {},
            "tile_prompt_ids": [
                "4c3faecd-7a5f-410b-9108-80d8aa345d54",
                "dc49154f-a9b5-446d-c479-9951adbca484"
            ],
            "answer_list_id": "69ddc5a2-ed55-4a2a-bf01-3fca6a62ceaa",
            "challenges_component_id": "03a8537d-3620-4d63-9246-89bb5cbb9c48"
        },
        {
            "id": "69ddc5a2-ed55-4a2a-bf01-3fca6a62ceaa",
            "component_type": "ComponentizedFrame.AnswerList",
            "behaviors": {},
            "answer_ids": [
                "ce5ff1a4-1e41-44e2-9831-abd4b2ccbc2e",
                "30726a19-c5c1-4b08-e3de-edbd0eb730fe"
            ],
            "skin": "buttons"
        },
        {
            "id": "ce5ff1a4-1e41-44e2-9831-abd4b2ccbc2e",
            "component_type": "ComponentizedFrame.SelectableAnswer",
            "behaviors": {},
            "text_id": "69a1c4e7-0f29-4f89-df56-fb782f03628d"
        },
        {
            "id": "69a1c4e7-0f29-4f89-df56-fb782f03628d",
            "component_type": "ComponentizedFrame.Text",
            "behaviors": {
                "ProcessesMarkdown": {},
                "ProcessesModals": {},
                "ProcessesInlineImages": {},
                "ProcessesMathjax": {}
            },
            "text": "true",
            "formatted_text": "<p>true</p>"
        },
        {
            "id": "30726a19-c5c1-4b08-e3de-edbd0eb730fe",
            "component_type": "ComponentizedFrame.SelectableAnswer",
            "behaviors": {},
            "text_id": "be4d4b04-ec51-4cd6-d440-6cf9e0b29acf"
        },
        {
            "id": "be4d4b04-ec51-4cd6-d440-6cf9e0b29acf",
            "component_type": "ComponentizedFrame.Text",
            "behaviors": {
                "ProcessesMarkdown": {},
                "ProcessesModals": {},
                "ProcessesInlineImages": {},
                "ProcessesMathjax": {}
            },
            "text": "false",
            "formatted_text": "<p>false</p>"
        },
        {
            "id": "bb03885b-5599-4927-f62e-311d66cf72d9",
            "component_type": "ComponentizedFrame.MultipleChoiceChallenge",
            "behaviors": {
                "CompleteOnCorrect": {},
                "ClearMessagesOnAnswerSelect": {},
                "DisallowMultipleSelect": {},
                "FlashIncorrectStyling": {},
                "ImmediateValidation": {},
                "ResetAnswersOnActivated": {},
                "ShowCorrectStyling": {}
            },
            "editor_template": "this_or_that",
            "_componentName": "MultipleChoiceChallenge",
            "validator_id": "662b44d5-8c2b-4cd4-dec7-04565bec3aab",
            "answer_list_id": "69ddc5a2-ed55-4a2a-bf01-3fca6a62ceaa",
            "message_ids": []
        },
        {
            "id": "662b44d5-8c2b-4cd4-dec7-04565bec3aab",
            "component_type": "ComponentizedFrame.ChallengeValidator",
            "behaviors": {
                "HasAllExpectedAnswers": {},
                "HasNoUnexpectedAnswers": {}
            },
            "challenge_id": "bb03885b-5599-4927-f62e-311d66cf72d9",
            "expected_answer_matcher_ids": [
                "3c791969-dd76-4897-8f18-e7d9d8548e1b"
            ]
        },
        {
            "id": "4c3faecd-7a5f-410b-9108-80d8aa345d54",
            "component_type": "ComponentizedFrame.TilePrompt",
            "behaviors": {},
            "text_id": "0c5762b8-7d6f-45ff-eaff-f7a2e63c2602",
            "challenge_id": "bb03885b-5599-4927-f62e-311d66cf72d9"
        },
        {
            "id": "0c5762b8-7d6f-45ff-eaff-f7a2e63c2602",
            "component_type": "ComponentizedFrame.Text",
            "behaviors": {
                "ProcessesMarkdown": {},
                "ProcessesModals": {},
                "ProcessesInlineImages": {},
                "ProcessesMathjax": {}
            },
            "text": "The sky is up.",
            "formatted_text": "<p>The sky is up.</p>"
        },
        {
            "id": "8d5739e7-c736-4fba-e047-5b130bd6dab5",
            "component_type": "ComponentizedFrame.Text",
            "behaviors": {
                "ProcessesMarkdown": {},
                "ProcessesModals": {},
                "ProcessesInlineImages": {},
                "ProcessesMathjax": {}
            },
            "text": "The {coral:This or That?} interaction asks the user to place scenarios and/or images into one of two categories, e.g. \"true\" or \"false.\" The categories are controlled in the {blue: Answers} panel. The scenarios and images are set in the {blue: Challenges} panel; this is also where you assign the categories with the {purple: Correct Answer} menu.",
            "formatted_text": "<p>The <span class=\"coral\">This or That?</span> interaction asks the user to place scenarios and/or images into one of two categories, e.g. \"true\" or \"false.\" The categories are controlled in the <span class=\"blue\"> Answers</span> panel. The scenarios and images are set in the <span class=\"blue\"> Challenges</span> panel; this is also where you assign the categories with the <span class=\"purple\"> Correct Answer</span> menu.</p>"
        },
        {
            "id": "3c791969-dd76-4897-8f18-e7d9d8548e1b",
            "component_type": "ComponentizedFrame.SimilarToSelectableAnswer",
            "behaviors": {},
            "answer_id": "ce5ff1a4-1e41-44e2-9831-abd4b2ccbc2e"
        },
        {
            "id": "057887ca-9283-43c7-8ffe-a37d8a16479d",
            "component_type": "ComponentizedFrame.MultipleChoiceChallenge",
            "behaviors": {
                "CompleteOnCorrect": {},
                "ClearMessagesOnAnswerSelect": {},
                "DisallowMultipleSelect": {},
                "FlashIncorrectStyling": {},
                "ImmediateValidation": {},
                "ResetAnswersOnActivated": {},
                "ShowCorrectStyling": {}
            },
            "editor_template": "this_or_that",
            "_componentName": "MultipleChoiceChallenge",
            "validator_id": "513e1ddc-c496-4c29-8ec7-d8502188a6da",
            "answer_list_id": "69ddc5a2-ed55-4a2a-bf01-3fca6a62ceaa",
            "message_ids": []
        },
        {
            "id": "513e1ddc-c496-4c29-8ec7-d8502188a6da",
            "component_type": "ComponentizedFrame.ChallengeValidator",
            "behaviors": {
                "HasAllExpectedAnswers": {},
                "HasNoUnexpectedAnswers": {}
            },
            "challenge_id": "057887ca-9283-43c7-8ffe-a37d8a16479d",
            "expected_answer_matcher_ids": [
                "d295b143-acab-48a1-fdcd-829b35c88354"
            ]
        },
        {
            "id": "dc49154f-a9b5-446d-c479-9951adbca484",
            "component_type": "ComponentizedFrame.TilePrompt",
            "behaviors": {},
            "challenge_id": "057887ca-9283-43c7-8ffe-a37d8a16479d",
            "text_id": "ba55e3b1-8c84-4b3a-a6ac-eb96ed0721bc"
        },
        {
            "id": "12cb47bf-a73f-4874-cedb-1f20e8551747",
            "component_type": "ComponentizedFrame.Image",
            "behaviors": {},
            "label": "alice16a",
            "image": {
                "file_file_name": "alice16a.png",
                "file_fingerprint": "9a4609e0084a9231e0fd3bc55046ff6d",
                "formats": {
                    "150x150": {
                        "url": "https://uploads.smart.ly/images/9a4609e0084a9231e0fd3bc55046ff6d/150x150/9a4609e0084a9231e0fd3bc55046ff6d.png",
                        "width": 150,
                        "height": 150
                    },
                    "565x275": {
                        "url": "https://uploads.smart.ly/images/9a4609e0084a9231e0fd3bc55046ff6d/565x275/9a4609e0084a9231e0fd3bc55046ff6d.png",
                        "width": 565,
                        "height": 275
                    },
                    "original": {
                        "url": "https://uploads.smart.ly/images/9a4609e0084a9231e0fd3bc55046ff6d/original/9a4609e0084a9231e0fd3bc55046ff6d.png"
                    },
                    "1400x550": {
                        "url": "https://uploads.smart.ly/images/9a4609e0084a9231e0fd3bc55046ff6d/1400x550/9a4609e0084a9231e0fd3bc55046ff6d.png",
                        "width": 1400,
                        "height": 550
                    },
                    "700x275": {
                        "url": "https://uploads.smart.ly/images/9a4609e0084a9231e0fd3bc55046ff6d/700x275/9a4609e0084a9231e0fd3bc55046ff6d.png",
                        "width": 700,
                        "height": 275
                    },
                    "1020x400": {
                        "url": "https://uploads.smart.ly/images/9a4609e0084a9231e0fd3bc55046ff6d/1020x400/9a4609e0084a9231e0fd3bc55046ff6d.png",
                        "width": 1020,
                        "height": 400
                    },
                    "510x200": {
                        "url": "https://uploads.smart.ly/images/9a4609e0084a9231e0fd3bc55046ff6d/510x200/9a4609e0084a9231e0fd3bc55046ff6d.png",
                        "width": 510,
                        "height": 200
                    },
                    "168x66": {
                        "url": "https://uploads.smart.ly/images/9a4609e0084a9231e0fd3bc55046ff6d/168x66/9a4609e0084a9231e0fd3bc55046ff6d.png",
                        "width": 168,
                        "height": 66
                    },
                    "84x33": {
                        "url": "https://uploads.smart.ly/images/9a4609e0084a9231e0fd3bc55046ff6d/84x33/9a4609e0084a9231e0fd3bc55046ff6d.png",
                        "width": 84,
                        "height": 33
                    },
                    "816x320": {
                        "url": "https://uploads.smart.ly/images/9a4609e0084a9231e0fd3bc55046ff6d/816x320/9a4609e0084a9231e0fd3bc55046ff6d.png",
                        "width": 816,
                        "height": 320
                    },
                    "408x160": {
                        "url": "https://uploads.smart.ly/images/9a4609e0084a9231e0fd3bc55046ff6d/408x160/9a4609e0084a9231e0fd3bc55046ff6d.png",
                        "width": 408,
                        "height": 160
                    },
                    "586x230": {
                        "url": "https://uploads.smart.ly/images/9a4609e0084a9231e0fd3bc55046ff6d/586x230/9a4609e0084a9231e0fd3bc55046ff6d.png",
                        "width": 586,
                        "height": 230
                    },
                    "293x115": {
                        "url": "https://uploads.smart.ly/images/9a4609e0084a9231e0fd3bc55046ff6d/293x115/9a4609e0084a9231e0fd3bc55046ff6d.png",
                        "width": 293,
                        "height": 115
                    },
                    "1146x450": {
                        "url": "https://uploads.smart.ly/images/9a4609e0084a9231e0fd3bc55046ff6d/1146x450/9a4609e0084a9231e0fd3bc55046ff6d.png",
                        "width": 1146,
                        "height": 450
                    },
                    "573x225": {
                        "url": "https://uploads.smart.ly/images/9a4609e0084a9231e0fd3bc55046ff6d/573x225/9a4609e0084a9231e0fd3bc55046ff6d.png",
                        "width": 573,
                        "height": 225
                    },
                    "688x270": {
                        "url": "https://uploads.smart.ly/images/9a4609e0084a9231e0fd3bc55046ff6d/688x270/9a4609e0084a9231e0fd3bc55046ff6d.png",
                        "width": 688,
                        "height": 270
                    },
                    "344x135": {
                        "url": "https://uploads.smart.ly/images/9a4609e0084a9231e0fd3bc55046ff6d/344x135/9a4609e0084a9231e0fd3bc55046ff6d.png",
                        "width": 344,
                        "height": 135
                    },
                    "2100x825": {
                        "url": "https://uploads.smart.ly/images/9a4609e0084a9231e0fd3bc55046ff6d/2100x825/9a4609e0084a9231e0fd3bc55046ff6d.png",
                        "width": 2100,
                        "height": 825
                    },
                    "1530x600": {
                        "url": "https://uploads.smart.ly/images/9a4609e0084a9231e0fd3bc55046ff6d/1530x600/9a4609e0084a9231e0fd3bc55046ff6d.png",
                        "width": 1530,
                        "height": 600
                    },
                    "252x99": {
                        "url": "https://uploads.smart.ly/images/9a4609e0084a9231e0fd3bc55046ff6d/252x99/9a4609e0084a9231e0fd3bc55046ff6d.png",
                        "width": 252,
                        "height": 99
                    },
                    "1224x480": {
                        "url": "https://uploads.smart.ly/images/9a4609e0084a9231e0fd3bc55046ff6d/1224x480/9a4609e0084a9231e0fd3bc55046ff6d.png",
                        "width": 1224,
                        "height": 480
                    },
                    "879x345": {
                        "url": "https://uploads.smart.ly/images/9a4609e0084a9231e0fd3bc55046ff6d/879x345/9a4609e0084a9231e0fd3bc55046ff6d.png",
                        "width": 879,
                        "height": 345
                    },
                    "1719x675": {
                        "url": "https://uploads.smart.ly/images/9a4609e0084a9231e0fd3bc55046ff6d/1719x675/9a4609e0084a9231e0fd3bc55046ff6d.png",
                        "width": 1719,
                        "height": 675
                    },
                    "1032x405": {
                        "url": "https://uploads.smart.ly/images/9a4609e0084a9231e0fd3bc55046ff6d/1032x405/9a4609e0084a9231e0fd3bc55046ff6d.png",
                        "width": 1032,
                        "height": 405
                    }
                },
                "dimensions": {
                    "width": 640,
                    "height": 477
                }
            }
        },
        {
            "id": "d295b143-acab-48a1-fdcd-829b35c88354",
            "component_type": "ComponentizedFrame.SimilarToSelectableAnswer",
            "behaviors": {},
            "answer_id": "30726a19-c5c1-4b08-e3de-edbd0eb730fe"
        },
        {
            "id": "ba55e3b1-8c84-4b3a-a6ac-eb96ed0721bc",
            "behaviors": {
                "ProcessesMarkdown": {},
                "ProcessesModals": {},
                "ProcessesInlineImages": {},
                "ProcessesMathjax": {}
            },
            "component_type": "ComponentizedFrame.Text",
            "text": "This is the second slide",
            "formatted_text": "<p>This is the second slide</p>"
        }
    ],
    "continue_button_id": "4c18aa82-57d9-4dca-a2f5-01b9b7d74e7c",
    "main_ui_component_id": "03a8537d-3620-4d63-9246-89bb5cbb9c48",
    "frame_navigator_id": "85669ea3-afec-4593-fc45-564c88a00fef"
}