{
  "project_info": {
    "project_number": "557194579793",
    "firebase_url": "https://smartly-production.firebaseio.com",
    "project_id": "smartly-production",
    "storage_bucket": "smartly-production.appspot.com"
  },
  "client": [
    {
      "client_info": {
        "mobilesdk_app_id": "1:557194579793:android:a21b6572cef49bcc",
        "android_client_info": {
          "package_name": "com.smartly.hybrid"
        }
      },
      "oauth_client": [
        {
          "client_id": "557194579793-tl0ulbpoefi0dc90cio10lme01naro7c.apps.googleusercontent.com",
          "client_type": 1,
          "android_info": {
            "package_name": "com.smartly.hybrid",
            "certificate_hash": "f0e1c7f60ac6b1f07695212226cfe8fdab994aa0"
          }
        },
        {
          "client_id": "557194579793-ocuvfoisscegf942oc2oadkpi9u10s2b.apps.googleusercontent.com",
          "client_type": 3
        }
      ],
      "api_key": [
        {
          "current_key": "AIzaSyA1J_yLHhHTJgrpCau2E114i7knvJaLzPY"
        },
        {
          "current_key": "AIzaSyDVLns13qZJ1OHmKhIcnUDN9rAVpkQ-Bks"
        }
      ],
      "services": {
        "appinvite_service": {
          "other_platform_oauth_client": [
            {
              "client_id": "557194579793-ocuvfoisscegf942oc2oadkpi9u10s2b.apps.googleusercontent.com",
              "client_type": 3
            },
            {
              "client_id": "557194579793-s7n9kpe0khka688j2dforibl6amu92hg.apps.googleusercontent.com",
              "client_type": 2,
              "ios_info": {
                "bundle_id": "com.smartly.miyamiya",
                "app_store_id": "1503519481"
              }
            }
          ]
        }
      }
    },
    {
      "client_info": {
        "mobilesdk_app_id": "1:557194579793:android:244bb039fb314c3ca24d70",
        "android_client_info": {
          "package_name": "com.smartly.miyamiya"
        }
      },
      "oauth_client": [
        {
          "client_id": "557194579793-c7mdj9b6m3lb2s93aebc9ps0cnfrpk88.apps.googleusercontent.com",
          "client_type": 1,
          "android_info": {
            "package_name": "com.smartly.miyamiya",
            "certificate_hash": "f0e1c7f60ac6b1f07695212226cfe8fdab994aa0"
          }
        },
        {
          "client_id": "557194579793-ocuvfoisscegf942oc2oadkpi9u10s2b.apps.googleusercontent.com",
          "client_type": 3
        }
      ],
      "api_key": [
        {
          "current_key": "AIzaSyA1J_yLHhHTJgrpCau2E114i7knvJaLzPY"
        },
        {
          "current_key": "AIzaSyDVLns13qZJ1OHmKhIcnUDN9rAVpkQ-Bks"
        }
      ],
      "services": {
        "appinvite_service": {
          "other_platform_oauth_client": [
            {
              "client_id": "557194579793-ocuvfoisscegf942oc2oadkpi9u10s2b.apps.googleusercontent.com",
              "client_type": 3
            },
            {
              "client_id": "557194579793-s7n9kpe0khka688j2dforibl6amu92hg.apps.googleusercontent.com",
              "client_type": 2,
              "ios_info": {
                "bundle_id": "com.smartly.miyamiya",
                "app_store_id": "1503519481"
              }
            }
          ]
        }
      }
    }
  ],
  "configuration_version": "1"
}