http://localhost:3000/course/85bde255-ab11-496c-828d-bdd0e70e0492/chapter/0/lesson/8ef6b5c2-8e38-40f1-8cfb-1948f568e5ff/show?frame=9509da28-c7a1-4424-a7a2-5df770abc296
http://localhost:3000/course/34a3fc30-d065-462b-b12c-c83411a8e230/chapter/0/lesson/809c2142-3a1f-4c36-a6b5-ce6aa1fd8997/show?frame=86a44d31-f98e-4141-f552-f57ad5564fb4
http://localhost:3000/course/624fed26-ac6c-4ff9-91ad-e9ab537ac39e/chapter/0/lesson/42bce8cf-d0a4-4b1d-8361-bb7f84ab8e1d/show?frame=b21a5e19-5e2d-4f9f-f29f-b61db82d8300
http://localhost:3000/course/e0575521-49b8-4311-b722-a7d75c4b3524/chapter/0/lesson/18c4f13c-a413-4c59-aec8-181c717a5534/show?frame=00a9a817-7541-4170-9be5-d437430dea65
http://localhost:3000/course/e0575521-49b8-4311-b722-a7d75c4b3524/chapter/0/lesson/9103f9c5-5542-440f-a24a-d6ae1b337b13/show?frame=d39b3efe-493e-4a2c-82d3-49ab38ad7a42
http://localhost:3000/course/7724f79b-67da-4e24-a44f-4e8e48a5b6c0/chapter/0/lesson/a878fad4-18f8-4018-8584-f25ff579fd48/show?frame=54405fd7-b51e-4d40-b9f1-1da6e3fb4083
http://localhost:3000/course/e0575521-49b8-4311-b722-a7d75c4b3524/chapter/0/lesson/b8a4ac66-9918-47da-a3af-508844b7457f/show?frame=2e17f981-e522-4d9a-b9e9-e382f2e11a6f
http://localhost:3000/course/bb9596a2-1258-49bc-a9f5-347a358fa0f4/chapter/0/lesson/e15ca352-7a23-472b-b2b7-9410f9f1fa75/show?frame=c5970f56-dea5-43e6-bf9d-0a06194b2d9e
http://localhost:3000/course/34865ee9-ca79-4684-aad2-81d127865af9/chapter/0/lesson/690f1fb2-d718-47a0-bb2b-6ae88c788e26/show?frame=de93d1a7-0053-4212-a43b-82fb2438b79a
http://localhost:3000/course/5192ccb3-0dd2-458f-b238-cc8d15748aec/chapter/0/lesson/06d26fa6-6d05-4505-ba26-1ab2b046d614/show?frame=862ee49e-856f-4385-fb9d-a1796ebbdaad